{
  "items": [
    {
      "id": 167153,
      "name": "Alice",
      "bio": "",
      "since": 2019,
      "email": "foo@example.com",
      "website": "",
      "image": "https://spinitron.com/images/Persona/16/71/167153-img_profile.225x225.jpg?v=1660748288",
      "_links": {
        "self": { "href": "https://spinitron.com/api/personas/167153" },
        "shows": [
          { "href": "https://spinitron.com/api/shows/248500" },
          { "href": "https://spinitron.com/api/shows/248517" },
          { "href": "https://spinitron.com/api/shows/254673" }
        ]
      }
    }
  ],
  "_links": {
    "self": { "href": "https://spinitron.com/api/personas?page=1" },
    "first": { "href": "https://spinitron.com/api/personas?page=1" },
    "last": { "href": "https://spinitron.com/api/personas?page=10" },
    "next": { "href": "https://spinitron.com/api/personas?page=2" }
  },
  "_meta": {
    "totalCount": 183,
    "pageCount": 10,
    "currentPage": 1,
    "perPage": 20
  }
}
