{
  "items": [
    {
      "id": 269919,
      "start": "2024-02-17T05:00:00+0000",
      "end": "2024-02-17T06:00:00+0000",
      "duration": 3600,
      "timezone": "America/New_York",
      "one_off": false,
      "category": "Freeform",
      "title": "Electric Kingdom",
      "description": "",
      "since": null,
      "url": "",
      "hide_dj": 0,
      "image": "https://farm7.staticflickr.com/6143/6010114940_a310f39c9e_m.jpg",
      "_links": {
        "self": { "href": "https://spinitron.com/api/shows/269919" },
        "personas": [{ "href": "https://spinitron.com/api/personas/167173" }],
        "playlists": { "href": "/api/playlists?show_id=269919" }
      }
    }
  ],
  "_links": {
    "self": { "href": "https://spinitron.com/api/shows?page=1" },
    "first": { "href": "https://spinitron.com/api/shows?page=1" },
    "last": { "href": "https://spinitron.com/api/shows?page=6" },
    "next": { "href": "https://spinitron.com/api/shows?page=2" }
  },
  "_meta": {
    "totalCount": 116,
    "pageCount": 6,
    "currentPage": 1,
    "perPage": 20
  }
}
